{
  "id": "danddcompendia",
  "title": "D&D 5e Compendia",
  "description": "A collection of compendia containing D&D 5e non SRD content",
  "relationships": {
    "systems": [
      {
        "id": "dnd5e",
        "type": "system",
        "compatibility": [
          {
            "minimum": "3.0.0",
            "maximum": "3",
            "verified": "3.2.0"
          }
        ]
      }
    ]
  },
  "version": "3.0.0.0",
  "authors": [
    {
      "name": "Matt Duffy"
    }
  ],
  "packs": [
    {
      "label": "Non SRD Weapons",
      "type": "Item",
      "name": "non-srd-weapons",
      "path": "packs/non-srd-weapons",
      "system": "dnd5e",
      "private": false,
      "flags": {}
    },
    {
      "label": "Non SRD Items",
      "type": "Item",
      "name": "non-srd-items",
      "path": "packs/non-srd-items",
      "system": "dnd5e",
      "private": false,
      "flags": {}
    },
    {
      "label": "Monsters",
      "type": "Actor",
      "name": "MONSTERS",
      "path": "packs/monsters",
      "system": "dnd5e",
      "private": false,
      "flags": {}
    },
    {
      "label": "Spells",
      "type": "Item",
      "name": "SPELLS",
      "path": "packs/spells",
      "system": "dnd5e",
      "private": false,
      "flags": {}
    }
  ],
  "compatibility": {
    "minimum": "10",
    "verified": "12",
    "maximum": "12"
  },
  "url": "https://gitlab.com/mod100/d-and-d-5e-foundry-compendia",
  "manifest": "https://gitlab.com/mod100/d-and-d-5e-foundry-compendia/-/raw/master/dist/module.json",
  "download": "https://gitlab.com/mod100/d-and-d-5e-foundry-compendia/-/archive/release-3.0.0.0/release-3.0.0.0.zip?path=dist"
}
